conn %default
	ikev2=insist
	pfs=yes
	ike=aes_gcm256-sha2_512+sha2_256-dh19+dh14+dh31+dh20+dh21+dh15+dh16+dh18,chacha20_poly1305-sha2_512+sha2_256-dh19+dh14+dh31+dh20+dh21+dh15+dh16+dh18,aes256-sha2_512+sha2_256-dh19+dh14+dh31+dh20+dh21+dh15+dh16+dh18,aes_gcm128-sha2_512+sha2_256-dh19+dh14+dh31+dh20+dh21+dh15+dh16+dh18,aes128-sha2_256-dh19+dh14+dh31+dh20+dh21+dh15+dh16+dh18
	esp=aes_gcm256,chacha20_poly1305,aes256-sha2_512+sha1+sha2_256,aes_gcm128,aes128-sha1+sha2_256
	authby=ecdsa-sha2_256,ecdsa-sha2_384,ecdsa-sha2_512,rsa-sha2_256,rsa-sha2_384,rsa-sha2_512,rsa-sha1
