CipherString = @SECLEVEL=2:kEECDH:kEDH:kPSK:kDHEPSK:kECDHEPSK:-kRSAPSK:-kRSA:-aDSS:-CHACHA20:-3DES:!DES:!RC4:!RC2:!IDEA:-SEED:!eNULL:!aNULL:-AESCCM:-SHA1:!MD5:-SHA384:-CAMELLIA:-ARIA:-AESCCM8
Ciphersuites = TLS_AES_256_GCM_SHA384:TLS_AES_128_GCM_SHA256
TLS.MinProtocol = TLSv1.2
TLS.MaxProtocol = TLSv1.2
DTLS.MinProtocol = DTLSv1.2
DTLS.MaxProtocol = DTLSv1.2
SignatureAlgorithms = ECDSA+SHA256:ECDSA+SHA384:ECDSA+SHA512:rsa_pss_pss_sha256:rsa_pss_pss_sha384:rsa_pss_pss_sha512:rsa_pss_rsae_sha256:rsa_pss_rsae_sha384:rsa_pss_rsae_sha512:RSA+SHA256:RSA+SHA384:RSA+SHA512

[openssl_init]
alg_section = evp_properties

[evp_properties]
rh-allow-sha1-signatures = yes
